…
puma <- nyc_puma_summary %>% 
  select(puma)

vax <- logistic_df %>% 
  select(below_herd_vax)

puma_risk_scores <- 
  bind_cols(puma, vax, as.vector(risk_predictions)) %>%
  rename(risk_prediciton = ...3)

puma_risk_scores
```

    ## # A tibble: 55 × 3
    ##    puma  below_herd_vax risk_prediciton
    ##    <fct> <fct>                    <dbl>
    ##  1 3701  1                         98.2
    ##  2 3702  1                         99.7
    ##  3 3703  1                         99  
    ##  4 3704  1                         99  
    ##  5 3705  1                        100  
    ##  6 3706  1                         99.8
    ##  7 3707  1                        100  
    ##  8 3708  1                         99.7
    ##  9 3709  1                         99.7
    ## 10 3710  1                        100  
    ## # … with 45 more rows
…
