…
vax <- logistic_df %>% 
  select(below_herd_vax)



risk_prediction <- 
  bind_cols(puma, vax, as.vector(risk_predictions)) %>%
  rename(risk_prediciton = ...3)

risk_prediction
```

    ## # A tibble: 55 × 3
    ##    puma  below_herd_vax risk_prediciton
    ##    <fct> <fct>                    <dbl>
    ##  1 3701  1                         99.6
    ##  2 3702  1                        100  
    ##  3 3703  1                         99.6
    ##  4 3704  1                         99.8
    ##  5 3705  1                        100  
    ##  6 3706  1                        100  
    ##  7 3707  1                        100  
    ##  8 3708  1                        100  
    ##  9 3709  1                        100  
    ## 10 3710  1                        100  
    ## # … with 45 more rows
…
